{
    "gitlabApi": "https://gitlab.com/api/v4",
    "privateToken": "ABCDEF1234",
    "membership": true,
    "showUsers": true,
    "autoZoom": true,
    "fetchCount": 50,
    "filter": {
        "include": "mtscloud/.*"
    }
}
